8 KWIC: Keywords-in-Context | DH in AAS - TA with R (2022S)
…
If you type View(kwic_test) in your console, an HTML table with all the results will be opened in your browser.

kwic_test %>% as_tibble %>%
  select(pre, keyword, post)

## # A tibble: 1,387 × 3
##    pre                                                             keyword post 
##    <chr>                                                           <chr>   <chr>
##  1 mighty tail to bring the cunning and cowardly Premier of        Lincoln to h…
##  2 the Southern Commissioners in compliance with the wishes of the Lincoln Gove…
##  3 and counties are enduring much from 24 tyranny of the           Lincoln Gove…
##  4 proportion to their respective means of proper storage Mrs .    Lincoln with…
##  5 at the Port of New York to-day is the brig                      Lincoln , fr…
##  6 of our sister State , and before the forces of                  Lincoln had …
##  7 brought against it by the enemy by water , the                  Lincoln Gove…
##  8 in Dreaded , the county seat are openly cheering for            Lincoln upon…
##  9 Southern War news . the                                         Lincoln gunb…
## 10 , men who were not Lincolnlies . ) Only two                     Lincoln gunb…
## # … with 1,377 more rows
…
