9 Text Analysis III: Finding Groups of Texts | DH in AAS - TA with R (2022S)
…
load(file="./files/data/d1864_lda_vem_25t_better.rda")
lda_model <- d1864_lda_vem_25t_better
corpus <- d1864

From this point on, the code should simply run — if you rename your own model produced above to lda_model.

9.6.3 Per-topic-per-word probabilities (beta)

lda_model_better_topic_term_prob <- tidy(lda_model, matrix="beta")

lda_model_better_topic_term_prob %>%
  filter(term == "bonds") %>%
  arrange(desc(beta))

## # A tibble: 25 × 3
##    topic term      beta
##    <int> <chr>    <dbl>
##  1     8 bonds 3.53e- 2
##  2     9 bonds 5.05e- 4
##  3    24 bonds 3.92e- 4
##  4    11 bonds 2.34e-13
##  5     2 bonds 2.13e-13
##  6     1 bonds 3.67e-16
##  7    16 bonds 2.01e-20
##  8    14 bonds 3.08e-21
##  9    18 bonds 3.87e-22
## 10     3 bonds 2.00e-22
## # … with 15 more rows
…
Topic-per-document probabilities: this object will tell us to which topics documents belong (and to what extent): (gamma stands for topic-per-document probability).

lda_model_topic_doc_prob <- tidy(lda_model, matrix="gamma")
lda_model_topic_doc_prob

## # A tibble: 356,150 × 3
##    document              topic     gamma
##    <chr>                 <int>     <dbl>
##  1 1864-09-12_advert_30      1 0.0000115
##  2 1864-04-18_article_10     1 0.709    
##  3 1864-08-27_article_41     1 0.0000581
##  4 1864-11-24_article_46     1 0.0614   
##  5 1864-04-26_article_8      1 0.0000152
##  6 1864-05-09_article_1      1 0.0000152
##  7 1864-05-14_article_23     1 0.139    
##  8 1864-05-16_article_6      1 0.122    
##  9 1864-06-27_article_2      1 0.0000270
## 10 1864-04-16_article_15     1 0.620    
## # … with 356,140 more rows
…
# your code here

Top N documents per topic: this will create an object with top N documents per each topic.

N = 10

top_docs <- lda_model_topic_doc_prob %>%
  group_by(topic) %>%
  top_n(N, gamma) %>%
  ungroup() %>%
  arrange(topic, -gamma)

top_docs

## # A tibble: 285 × 3
##    document               topic gamma
##    <chr>                  <int> <dbl>
##  1 1864-09-14_article_65      1 0.992
##  2 1864-08-31_article_103     1 0.989
##  3 1864-09-08_article_34      1 0.984
##  4 1864-04-19_article_30      1 0.980
##  5 1864-03-23_article_68      1 0.977
##  6 1864-06-03_article_12      1 0.965
##  7 1864-12-29_article_47      1 0.957
##  8 1864-03-10_article_118     1 0.956
##  9 1864-06-08_article_15      1 0.940
## 10 1864-09-01_article_65      1 0.939
## # … with 275 more rows
…
corpus_light <- corpus %>%
  select(-header, -text)

lda_model_topics <- lda_model_topic_doc_prob %>%
  rename(id=document) %>%
  left_join(corpus_light, by="id") %>%
  group_by(topic, date) %>%
  summarize(freq=sum(gamma))

## `summarise()` has grouped output by 'topic'. You can override using the
## `.groups` argument.

lda_model_topics

## # A tibble: 7,725 × 3
## # Groups:   topic [25]
##    topic date        freq
##    <int> <date>     <dbl>
##  1     1 1864-01-01 0.219
##  2     1 1864-01-02 0.731
##  3     1 1864-01-04 1.02 
##  4     1 1864-01-05 0.587
##  5     1 1864-01-06 0.708
##  6     1 1864-01-07 1.35 
##  7     1 1864-01-08 0.400
##  8     1 1864-01-09 0.580
##  9     1 1864-01-11 0.838
## 10     1 1864-01-12 0.783
## # … with 7,715 more rows
…
